-- Merging decision tree log ---
manifest
ADDED from C:\Users\baeko\AndroidStudioProjects\Assignment\DroidCafeInput\app\src\main\AndroidManifest.xml:2:1-25:12
INJECTED from C:\Users\baeko\AndroidStudioProjects\Assignment\DroidCafeInput\app\src\main\AndroidManifest.xml:2:1-25:12
INJECTED from C:\Users\baeko\AndroidStudioProjects\Assignment\DroidCafeInput\app\src\main\AndroidManifest.xml:2:1-25:12
INJECTED from C:\Users\baeko\AndroidStudioProjects\Assignment\DroidCafeInput\app\src\main\AndroidManifest.xml:2:1-25:12
MERGED from [com.android.support:design:26.1.0] C:\Users\baeko\.gradle\caches\transforms-1\files-1.1\design-26.1.0.aar\7bbd59657b16f37fce66bc4f2662c9a9\AndroidManifest.xml:17:1-31:12
MERGED from [com.android.support:appcompat-v7:26.1.0] C:\Users\baeko\.gradle\caches\transforms-1\files-1.1\appcompat-v7-26.1.0.aar\e3d5a40cce39bc47456c59a7a9747f4f\AndroidManifest.xml:17:1-31:12
MERGED from [com.android.support.constraint:constraint-layout:1.0.2] C:\Users\baeko\.gradle\caches\transforms-1\files-1.1\constraint-layout-1.0.2.aar\ba0616f842992f7fe89cd925abb59dcf\AndroidManifest.xml:2:1-11:12
MERGED from [com.android.support:animated-vector-drawable:26.1.0] C:\Users\baeko\.gradle\caches\transforms-1\files-1.1\animated-vector-drawable-26.1.0.aar\c42f22a1ad3e57879ae517f0ea028298\AndroidManifest.xml:17:1-28:12
MERGED from [com.android.support:support-vector-drawable:26.1.0] C:\Users\baeko\.gradle\caches\transforms-1\files-1.1\support-vector-drawable-26.1.0.aar\5a0ea0409418f4abe69716ebb5b99355\AndroidManifest.xml:17:1-28:12
MERGED from [com.android.support:recyclerview-v7:26.1.0] C:\Users\baeko\.gradle\caches\transforms-1\files-1.1\recyclerview-v7-26.1.0.aar\9d4a1d9e9e28dccbf1000596d36e70aa\AndroidManifest.xml:17:1-28:12
MERGED from [com.android.support:transition:26.1.0] C:\Users\baeko\.gradle\caches\transforms-1\files-1.1\transition-26.1.0.aar\c402336251d20a2ab65ced82a4a9fa62\AndroidManifest.xml:17:1-28:12
MERGED from [com.android.support:support-v4:26.1.0] C:\Users\baeko\.gradle\caches\transforms-1\files-1.1\support-v4-26.1.0.aar\0ac5f3b2910fe8edc5831258e83e3e9b\AndroidManifest.xml:17:1-31:12
MERGED from [com.android.support:support-media-compat:26.1.0] C:\Users\baeko\.gradle\caches\transforms-1\files-1.1\support-media-compat-26.1.0.aar\c527a203f47beaecc4d64206a52a2a26\AndroidManifest.xml:17:1-31:12
MERGED from [com.android.support:support-fragment:26.1.0] C:\Users\baeko\.gradle\caches\transforms-1\files-1.1\support-fragment-26.1.0.aar\097ad7a1ac4687b8ebbd84bce3529346\AndroidManifest.xml:17:1-31:12
MERGED from [com.android.support:support-core-utils:26.1.0] C:\Users\baeko\.gradle\caches\transforms-1\files-1.1\support-core-utils-26.1.0.aar\ddc9691bfd09df0aec5faa6a6722f5f6\AndroidManifest.xml:17:1-31:12
MERGED from [com.android.support:support-core-ui:26.1.0] C:\Users\baeko\.gradle\caches\transforms-1\files-1.1\support-core-ui-26.1.0.aar\e35e665c6a0ae866f2ab7dcc18bb6ea1\AndroidManifest.xml:17:1-31:12
MERGED from [com.android.support:support-compat:26.1.0] C:\Users\baeko\.gradle\caches\transforms-1\files-1.1\support-compat-26.1.0.aar\192199dfda65f3fdc7e6599341fbc291\AndroidManifest.xml:17:1-31:12
MERGED from [android.arch.lifecycle:runtime:1.0.0] C:\Users\baeko\.gradle\caches\transforms-1\files-1.1\runtime-1.0.0.aar\0c7168d11fa44793fdacae38965d550a\AndroidManifest.xml:17:1-30:12
INJECTED from C:\Users\baeko\AndroidStudioProjects\Assignment\DroidCafeInput\app\src\main\AndroidManifest.xml:2:1-25:12
INJECTED from C:\Users\baeko\AndroidStudioProjects\Assignment\DroidCafeInput\app\src\main\AndroidManifest.xml:2:1-25:12
INJECTED from C:\Users\baeko\AndroidStudioProjects\Assignment\DroidCafeInput\app\src\main\AndroidManifest.xml:2:1-25:12
	package
		ADDED from C:\Users\baeko\AndroidStudioProjects\Assignment\DroidCafeInput\app\src\main\AndroidManifest.xml:3:5-49
		INJECTED from C:\Users\baeko\AndroidStudioProjects\Assignment\DroidCafeInput\app\src\main\AndroidManifest.xml
		INJECTED from C:\Users\baeko\AndroidStudioProjects\Assignment\DroidCafeInput\app\src\main\AndroidManifest.xml
	android:versionName
		INJECTED from C:\Users\baeko\AndroidStudioProjects\Assignment\DroidCafeInput\app\src\main\AndroidManifest.xml
		ADDED from C:\Users\baeko\AndroidStudioProjects\Assignment\DroidCafeInput\app\src\main\AndroidManifest.xml:2:1-25:12
		INJECTED from C:\Users\baeko\AndroidStudioProjects\Assignment\DroidCafeInput\app\src\main\AndroidManifest.xml
	android:versionCode
		INJECTED from C:\Users\baeko\AndroidStudioProjects\Assignment\DroidCafeInput\app\src\main\AndroidManifest.xml
		ADDED from C:\Users\baeko\AndroidStudioProjects\Assignment\DroidCafeInput\app\src\main\AndroidManifest.xml:2:1-25:12
		INJECTED from C:\Users\baeko\AndroidStudioProjects\Assignment\DroidCafeInput\app\src\main\AndroidManifest.xml
	xmlns:android
		ADDED from C:\Users\baeko\AndroidStudioProjects\Assignment\DroidCafeInput\app\src\main\AndroidManifest.xml:2:11-69
application
ADDED from C:\Users\baeko\AndroidStudioProjects\Assignment\DroidCafeInput\app\src\main\AndroidManifest.xml:5:5-23:19
MERGED from [com.android.support:design:26.1.0] C:\Users\baeko\.gradle\caches\transforms-1\files-1.1\design-26.1.0.aar\7bbd59657b16f37fce66bc4f2662c9a9\AndroidManifest.xml:25:5-29:19
MERGED from [com.android.support:design:26.1.0] C:\Users\baeko\.gradle\caches\transforms-1\files-1.1\design-26.1.0.aar\7bbd59657b16f37fce66bc4f2662c9a9\AndroidManifest.xml:25:5-29:19
MERGED from [com.android.support:appcompat-v7:26.1.0] C:\Users\baeko\.gradle\caches\transforms-1\files-1.1\appcompat-v7-26.1.0.aar\e3d5a40cce39bc47456c59a7a9747f4f\AndroidManifest.xml:25:5-29:19
MERGED from [com.android.support:appcompat-v7:26.1.0] C:\Users\baeko\.gradle\caches\transforms-1\files-1.1\appcompat-v7-26.1.0.aar\e3d5a40cce39bc47456c59a7a9747f4f\AndroidManifest.xml:25:5-29:19
MERGED from [com.android.support.constraint:constraint-layout:1.0.2] C:\Users\baeko\.gradle\caches\transforms-1\files-1.1\constraint-layout-1.0.2.aar\ba0616f842992f7fe89cd925abb59dcf\AndroidManifest.xml:9:5-20
MERGED from [com.android.support.constraint:constraint-layout:1.0.2] C:\Users\baeko\.gradle\caches\transforms-1\files-1.1\constraint-layout-1.0.2.aar\ba0616f842992f7fe89cd925abb59dcf\AndroidManifest.xml:9:5-20
MERGED from [com.android.support:animated-vector-drawable:26.1.0] C:\Users\baeko\.gradle\caches\transforms-1\files-1.1\animated-vector-drawable-26.1.0.aar\c42f22a1ad3e57879ae517f0ea028298\AndroidManifest.xml:22:5-26:19
MERGED from [com.android.support:animated-vector-drawable:26.1.0] C:\Users\baeko\.gradle\caches\transforms-1\files-1.1\animated-vector-drawable-26.1.0.aar\c42f22a1ad3e57879ae517f0ea028298\AndroidManifest.xml:22:5-26:19
MERGED from [com.android.support:support-vector-drawable:26.1.0] C:\Users\baeko\.gradle\caches\transforms-1\files-1.1\support-vector-drawable-26.1.0.aar\5a0ea0409418f4abe69716ebb5b99355\AndroidManifest.xml:22:5-26:19
MERGED from [com.android.support:support-vector-drawable:26.1.0] C:\Users\baeko\.gradle\caches\transforms-1\files-1.1\support-vector-drawable-26.1.0.aar\5a0ea0409418f4abe69716ebb5b99355\AndroidManifest.xml:22:5-26:19
MERGED from [com.android.support:recyclerview-v7:26.1.0] C:\Users\baeko\.gradle\caches\transforms-1\files-1.1\recyclerview-v7-26.1.0.aar\9d4a1d9e9e28dccbf1000596d36e70aa\AndroidManifest.xml:22:5-26:19
MERGED from [com.android.support:recyclerview-v7:26.1.0] C:\Users\baeko\.gradle\caches\transforms-1\files-1.1\recyclerview-v7-26.1.0.aar\9d4a1d9e9e28dccbf1000596d36e70aa\AndroidManifest.xml:22:5-26:19
MERGED from [com.android.support:transition:26.1.0] C:\Users\baeko\.gradle\caches\transforms-1\files-1.1\transition-26.1.0.aar\c402336251d20a2ab65ced82a4a9fa62\AndroidManifest.xml:22:5-26:19
MERGED from [com.android.support:transition:26.1.0] C:\Users\baeko\.gradle\caches\transforms-1\files-1.1\transition-26.1.0.aar\c402336251d20a2ab65ced82a4a9fa62\AndroidManifest.xml:22:5-26:19
MERGED from [com.android.support:support-v4:26.1.0] C:\Users\baeko\.gradle\caches\transforms-1\files-1.1\support-v4-26.1.0.aar\0ac5f3b2910fe8edc5831258e83e3e9b\AndroidManifest.xml:25:5-29:19
MERGED from [com.android.support:support-v4:26.1.0] C:\Users\baeko\.gradle\caches\transforms-1\files-1.1\support-v4-26.1.0.aar\0ac5f3b2910fe8edc5831258e83e3e9b\AndroidManifest.xml:25:5-29:19
MERGED from [com.android.support:support-media-compat:26.1.0] C:\Users\baeko\.gradle\caches\transforms-1\files-1.1\support-media-compat-26.1.0.aar\c527a203f47beaecc4d64206a52a2a26\AndroidManifest.xml:25:5-29:19
MERGED from [com.android.support:support-media-compat:26.1.0] C:\Users\baeko\.gradle\caches\transforms-1\files-1.1\support-media-compat-26.1.0.aar\c527a203f47beaecc4d64206a52a2a26\AndroidManifest.xml:25:5-29:19
MERGED from [com.android.support:support-fragment:26.1.0] C:\Users\baeko\.gradle\caches\transforms-1\files-1.1\support-fragment-26.1.0.aar\097ad7a1ac4687b8ebbd84bce3529346\AndroidManifest.xml:25:5-29:19
MERGED from [com.android.support:support-fragment:26.1.0] C:\Users\baeko\.gradle\caches\transforms-1\files-1.1\support-fragment-26.1.0.aar\097ad7a1ac4687b8ebbd84bce3529346\AndroidManifest.xml:25:5-29:19
MERGED from [com.android.support:support-core-utils:26.1.0] C:\Users\baeko\.gradle\caches\transforms-1\files-1.1\support-core-utils-26.1.0.aar\ddc9691bfd09df0aec5faa6a6722f5f6\AndroidManifest.xml:25:5-29:19
MERGED from [com.android.support:support-core-utils:26.1.0] C:\Users\baeko\.gradle\caches\transforms-1\files-1.1\support-core-utils-26.1.0.aar\ddc9691bfd09df0aec5faa6a6722f5f6\AndroidManifest.xml:25:5-29:19
MERGED from [com.android.support:support-core-ui:26.1.0] C:\Users\baeko\.gradle\caches\transforms-1\files-1.1\support-core-ui-26.1.0.aar\e35e665c6a0ae866f2ab7dcc18bb6ea1\AndroidManifest.xml:25:5-29:19
MERGED from [com.android.support:support-core-ui:26.1.0] C:\Users\baeko\.gradle\caches\transforms-1\files-1.1\support-core-ui-26.1.0.aar\e35e665c6a0ae866f2ab7dcc18bb6ea1\AndroidManifest.xml:25:5-29:19
MERGED from [com.android.support:support-compat:26.1.0] C:\Users\baeko\.gradle\caches\transforms-1\files-1.1\support-compat-26.1.0.aar\192199dfda65f3fdc7e6599341fbc291\AndroidManifest.xml:25:5-29:19
MERGED from [com.android.support:support-compat:26.1.0] C:\Users\baeko\.gradle\caches\transforms-1\files-1.1\support-compat-26.1.0.aar\192199dfda65f3fdc7e6599341fbc291\AndroidManifest.xml:25:5-29:19
MERGED from [android.arch.lifecycle:runtime:1.0.0] C:\Users\baeko\.gradle\caches\transforms-1\files-1.1\runtime-1.0.0.aar\0c7168d11fa44793fdacae38965d550a\AndroidManifest.xml:24:5-28:19
MERGED from [android.arch.lifecycle:runtime:1.0.0] C:\Users\baeko\.gradle\caches\transforms-1\files-1.1\runtime-1.0.0.aar\0c7168d11fa44793fdacae38965d550a\AndroidManifest.xml:24:5-28:19
	android:supportsRtl
		ADDED from C:\Users\baeko\AndroidStudioProjects\Assignment\DroidCafeInput\app\src\main\AndroidManifest.xml:10:9-35
	android:label
		ADDED from C:\Users\baeko\AndroidStudioProjects\Assignment\DroidCafeInput\app\src\main\AndroidManifest.xml:8:9-41
	android:roundIcon
		ADDED from C:\Users\baeko\AndroidStudioProjects\Assignment\DroidCafeInput\app\src\main\AndroidManifest.xml:9:9-54
	android:icon
		ADDED from C:\Users\baeko\AndroidStudioProjects\Assignment\DroidCafeInput\app\src\main\AndroidManifest.xml:7:9-43
	android:allowBackup
		ADDED from C:\Users\baeko\AndroidStudioProjects\Assignment\DroidCafeInput\app\src\main\AndroidManifest.xml:6:9-35
	android:theme
		ADDED from C:\Users\baeko\AndroidStudioProjects\Assignment\DroidCafeInput\app\src\main\AndroidManifest.xml:11:9-40
activity#com.example.android.droidcafeinput.MainActivity
ADDED from C:\Users\baeko\AndroidStudioProjects\Assignment\DroidCafeInput\app\src\main\AndroidManifest.xml:12:9-21:20
	android:label
		ADDED from C:\Users\baeko\AndroidStudioProjects\Assignment\DroidCafeInput\app\src\main\AndroidManifest.xml:14:13-45
	android:theme
		ADDED from C:\Users\baeko\AndroidStudioProjects\Assignment\DroidCafeInput\app\src\main\AndroidManifest.xml:15:13-56
	android:name
		ADDED from C:\Users\baeko\AndroidStudioProjects\Assignment\DroidCafeInput\app\src\main\AndroidManifest.xml:13:13-75
intent-filter#android.intent.action.MAIN+android.intent.category.LAUNCHER
ADDED from C:\Users\baeko\AndroidStudioProjects\Assignment\DroidCafeInput\app\src\main\AndroidManifest.xml:16:13-20:29
action#android.intent.action.MAIN
ADDED from C:\Users\baeko\AndroidStudioProjects\Assignment\DroidCafeInput\app\src\main\AndroidManifest.xml:17:17-69
	android:name
		ADDED from C:\Users\baeko\AndroidStudioProjects\Assignment\DroidCafeInput\app\src\main\AndroidManifest.xml:17:25-66
category#android.intent.category.LAUNCHER
ADDED from C:\Users\baeko\AndroidStudioProjects\Assignment\DroidCafeInput\app\src\main\AndroidManifest.xml:19:17-77
	android:name
		ADDED from C:\Users\baeko\AndroidStudioProjects\Assignment\DroidCafeInput\app\src\main\AndroidManifest.xml:19:27-74
activity#com.example.android.droidcafeinput.OrderActivity
ADDED from C:\Users\baeko\AndroidStudioProjects\Assignment\DroidCafeInput\app\src\main\AndroidManifest.xml:22:9-51
	android:name
		ADDED from C:\Users\baeko\AndroidStudioProjects\Assignment\DroidCafeInput\app\src\main\AndroidManifest.xml:22:19-48
uses-sdk
INJECTED from C:\Users\baeko\AndroidStudioProjects\Assignment\DroidCafeInput\app\src\main\AndroidManifest.xml reason: use-sdk injection requested
INJECTED from C:\Users\baeko\AndroidStudioProjects\Assignment\DroidCafeInput\app\src\main\AndroidManifest.xml
INJECTED from C:\Users\baeko\AndroidStudioProjects\Assignment\DroidCafeInput\app\src\main\AndroidManifest.xml
MERGED from [com.android.support:design:26.1.0] C:\Users\baeko\.gradle\caches\transforms-1\files-1.1\design-26.1.0.aar\7bbd59657b16f37fce66bc4f2662c9a9\AndroidManifest.xml:21:5-23:62
MERGED from [com.android.support:design:26.1.0] C:\Users\baeko\.gradle\caches\transforms-1\files-1.1\design-26.1.0.aar\7bbd59657b16f37fce66bc4f2662c9a9\AndroidManifest.xml:21:5-23:62
MERGED from [com.android.support:appcompat-v7:26.1.0] C:\Users\baeko\.gradle\caches\transforms-1\files-1.1\appcompat-v7-26.1.0.aar\e3d5a40cce39bc47456c59a7a9747f4f\AndroidManifest.xml:21:5-23:78
MERGED from [com.android.support:appcompat-v7:26.1.0] C:\Users\baeko\.gradle\caches\transforms-1\files-1.1\appcompat-v7-26.1.0.aar\e3d5a40cce39bc47456c59a7a9747f4f\AndroidManifest.xml:21:5-23:78
MERGED from [com.android.support.constraint:constraint-layout:1.0.2] C:\Users\baeko\.gradle\caches\transforms-1\files-1.1\constraint-layout-1.0.2.aar\ba0616f842992f7fe89cd925abb59dcf\AndroidManifest.xml:5:5-7:41
MERGED from [com.android.support.constraint:constraint-layout:1.0.2] C:\Users\baeko\.gradle\caches\transforms-1\files-1.1\constraint-layout-1.0.2.aar\ba0616f842992f7fe89cd925abb59dcf\AndroidManifest.xml:5:5-7:41
MERGED from [com.android.support:animated-vector-drawable:26.1.0] C:\Users\baeko\.gradle\caches\transforms-1\files-1.1\animated-vector-drawable-26.1.0.aar\c42f22a1ad3e57879ae517f0ea028298\AndroidManifest.xml:20:5-44
MERGED from [com.android.support:animated-vector-drawable:26.1.0] C:\Users\baeko\.gradle\caches\transforms-1\files-1.1\animated-vector-drawable-26.1.0.aar\c42f22a1ad3e57879ae517f0ea028298\AndroidManifest.xml:20:5-44
MERGED from [com.android.support:support-vector-drawable:26.1.0] C:\Users\baeko\.gradle\caches\transforms-1\files-1.1\support-vector-drawable-26.1.0.aar\5a0ea0409418f4abe69716ebb5b99355\AndroidManifest.xml:20:5-44
MERGED from [com.android.support:support-vector-drawable:26.1.0] C:\Users\baeko\.gradle\caches\transforms-1\files-1.1\support-vector-drawable-26.1.0.aar\5a0ea0409418f4abe69716ebb5b99355\AndroidManifest.xml:20:5-44
MERGED from [com.android.support:recyclerview-v7:26.1.0] C:\Users\baeko\.gradle\caches\transforms-1\files-1.1\recyclerview-v7-26.1.0.aar\9d4a1d9e9e28dccbf1000596d36e70aa\AndroidManifest.xml:20:5-44
MERGED from [com.android.support:recyclerview-v7:26.1.0] C:\Users\baeko\.gradle\caches\transforms-1\files-1.1\recyclerview-v7-26.1.0.aar\9d4a1d9e9e28dccbf1000596d36e70aa\AndroidManifest.xml:20:5-44
MERGED from [com.android.support:transition:26.1.0] C:\Users\baeko\.gradle\caches\transforms-1\files-1.1\transition-26.1.0.aar\c402336251d20a2ab65ced82a4a9fa62\AndroidManifest.xml:20:5-44
MERGED from [com.android.support:transition:26.1.0] C:\Users\baeko\.gradle\caches\transforms-1\files-1.1\transition-26.1.0.aar\c402336251d20a2ab65ced82a4a9fa62\AndroidManifest.xml:20:5-44
MERGED from [com.android.support:support-v4:26.1.0] C:\Users\baeko\.gradle\caches\transforms-1\files-1.1\support-v4-26.1.0.aar\0ac5f3b2910fe8edc5831258e83e3e9b\AndroidManifest.xml:21:5-23:54
MERGED from [com.android.support:support-v4:26.1.0] C:\Users\baeko\.gradle\caches\transforms-1\files-1.1\support-v4-26.1.0.aar\0ac5f3b2910fe8edc5831258e83e3e9b\AndroidManifest.xml:21:5-23:54
MERGED from [com.android.support:support-media-compat:26.1.0] C:\Users\baeko\.gradle\caches\transforms-1\files-1.1\support-media-compat-26.1.0.aar\c527a203f47beaecc4d64206a52a2a26\AndroidManifest.xml:21:5-23:63
MERGED from [com.android.support:support-media-compat:26.1.0] C:\Users\baeko\.gradle\caches\transforms-1\files-1.1\support-media-compat-26.1.0.aar\c527a203f47beaecc4d64206a52a2a26\AndroidManifest.xml:21:5-23:63
MERGED from [com.android.support:support-fragment:26.1.0] C:\Users\baeko\.gradle\caches\transforms-1\files-1.1\support-fragment-26.1.0.aar\097ad7a1ac4687b8ebbd84bce3529346\AndroidManifest.xml:21:5-23:60
MERGED from [com.android.support:support-fragment:26.1.0] C:\Users\baeko\.gradle\caches\transforms-1\files-1.1\support-fragment-26.1.0.aar\097ad7a1ac4687b8ebbd84bce3529346\AndroidManifest.xml:21:5-23:60
MERGED from [com.android.support:support-core-utils:26.1.0] C:\Users\baeko\.gradle\caches\transforms-1\files-1.1\support-core-utils-26.1.0.aar\ddc9691bfd09df0aec5faa6a6722f5f6\AndroidManifest.xml:21:5-23:61
MERGED from [com.android.support:support-core-utils:26.1.0] C:\Users\baeko\.gradle\caches\transforms-1\files-1.1\support-core-utils-26.1.0.aar\ddc9691bfd09df0aec5faa6a6722f5f6\AndroidManifest.xml:21:5-23:61
MERGED from [com.android.support:support-core-ui:26.1.0] C:\Users\baeko\.gradle\caches\transforms-1\files-1.1\support-core-ui-26.1.0.aar\e35e665c6a0ae866f2ab7dcc18bb6ea1\AndroidManifest.xml:21:5-23:58
MERGED from [com.android.support:support-core-ui:26.1.0] C:\Users\baeko\.gradle\caches\transforms-1\files-1.1\support-core-ui-26.1.0.aar\e35e665c6a0ae866f2ab7dcc18bb6ea1\AndroidManifest.xml:21:5-23:58
MERGED from [com.android.support:support-compat:26.1.0] C:\Users\baeko\.gradle\caches\transforms-1\files-1.1\support-compat-26.1.0.aar\192199dfda65f3fdc7e6599341fbc291\AndroidManifest.xml:21:5-23:58
MERGED from [com.android.support:support-compat:26.1.0] C:\Users\baeko\.gradle\caches\transforms-1\files-1.1\support-compat-26.1.0.aar\192199dfda65f3fdc7e6599341fbc291\AndroidManifest.xml:21:5-23:58
MERGED from [android.arch.lifecycle:runtime:1.0.0] C:\Users\baeko\.gradle\caches\transforms-1\files-1.1\runtime-1.0.0.aar\0c7168d11fa44793fdacae38965d550a\AndroidManifest.xml:20:5-22:41
MERGED from [android.arch.lifecycle:runtime:1.0.0] C:\Users\baeko\.gradle\caches\transforms-1\files-1.1\runtime-1.0.0.aar\0c7168d11fa44793fdacae38965d550a\AndroidManifest.xml:20:5-22:41
INJECTED from C:\Users\baeko\AndroidStudioProjects\Assignment\DroidCafeInput\app\src\main\AndroidManifest.xml
INJECTED from C:\Users\baeko\AndroidStudioProjects\Assignment\DroidCafeInput\app\src\main\AndroidManifest.xml
	tools:overrideLibrary
		ADDED from [com.android.support:design:26.1.0] C:\Users\baeko\.gradle\caches\transforms-1\files-1.1\design-26.1.0.aar\7bbd59657b16f37fce66bc4f2662c9a9\AndroidManifest.xml:23:9-59
	android:targetSdkVersion
		INJECTED from C:\Users\baeko\AndroidStudioProjects\Assignment\DroidCafeInput\app\src\main\AndroidManifest.xml
		ADDED from C:\Users\baeko\AndroidStudioProjects\Assignment\DroidCafeInput\app\src\main\AndroidManifest.xml
		INJECTED from C:\Users\baeko\AndroidStudioProjects\Assignment\DroidCafeInput\app\src\main\AndroidManifest.xml
	android:minSdkVersion
		INJECTED from C:\Users\baeko\AndroidStudioProjects\Assignment\DroidCafeInput\app\src\main\AndroidManifest.xml
		ADDED from C:\Users\baeko\AndroidStudioProjects\Assignment\DroidCafeInput\app\src\main\AndroidManifest.xml
		INJECTED from C:\Users\baeko\AndroidStudioProjects\Assignment\DroidCafeInput\app\src\main\AndroidManifest.xml
meta-data#android.support.VERSION
ADDED from [com.android.support:design:26.1.0] C:\Users\baeko\.gradle\caches\transforms-1\files-1.1\design-26.1.0.aar\7bbd59657b16f37fce66bc4f2662c9a9\AndroidManifest.xml:26:9-28:38
MERGED from [com.android.support:appcompat-v7:26.1.0] C:\Users\baeko\.gradle\caches\transforms-1\files-1.1\appcompat-v7-26.1.0.aar\e3d5a40cce39bc47456c59a7a9747f4f\AndroidManifest.xml:26:9-28:38
MERGED from [com.android.support:appcompat-v7:26.1.0] C:\Users\baeko\.gradle\caches\transforms-1\files-1.1\appcompat-v7-26.1.0.aar\e3d5a40cce39bc47456c59a7a9747f4f\AndroidManifest.xml:26:9-28:38
MERGED from [com.android.support:animated-vector-drawable:26.1.0] C:\Users\baeko\.gradle\caches\transforms-1\files-1.1\animated-vector-drawable-26.1.0.aar\c42f22a1ad3e57879ae517f0ea028298\AndroidManifest.xml:23:9-25:38
MERGED from [com.android.support:animated-vector-drawable:26.1.0] C:\Users\baeko\.gradle\caches\transforms-1\files-1.1\animated-vector-drawable-26.1.0.aar\c42f22a1ad3e57879ae517f0ea028298\AndroidManifest.xml:23:9-25:38
MERGED from [com.android.support:support-vector-drawable:26.1.0] C:\Users\baeko\.gradle\caches\transforms-1\files-1.1\support-vector-drawable-26.1.0.aar\5a0ea0409418f4abe69716ebb5b99355\AndroidManifest.xml:23:9-25:38
MERGED from [com.android.support:support-vector-drawable:26.1.0] C:\Users\baeko\.gradle\caches\transforms-1\files-1.1\support-vector-drawable-26.1.0.aar\5a0ea0409418f4abe69716ebb5b99355\AndroidManifest.xml:23:9-25:38
MERGED from [com.android.support:recyclerview-v7:26.1.0] C:\Users\baeko\.gradle\caches\transforms-1\files-1.1\recyclerview-v7-26.1.0.aar\9d4a1d9e9e28dccbf1000596d36e70aa\AndroidManifest.xml:23:9-25:38
MERGED from [com.android.support:recyclerview-v7:26.1.0] C:\Users\baeko\.gradle\caches\transforms-1\files-1.1\recyclerview-v7-26.1.0.aar\9d4a1d9e9e28dccbf1000596d36e70aa\AndroidManifest.xml:23:9-25:38
MERGED from [com.android.support:transition:26.1.0] C:\Users\baeko\.gradle\caches\transforms-1\files-1.1\transition-26.1.0.aar\c402336251d20a2ab65ced82a4a9fa62\AndroidManifest.xml:23:9-25:38
MERGED from [com.android.support:transition:26.1.0] C:\Users\baeko\.gradle\caches\transforms-1\files-1.1\transition-26.1.0.aar\c402336251d20a2ab65ced82a4a9fa62\AndroidManifest.xml:23:9-25:38
MERGED from [com.android.support:support-v4:26.1.0] C:\Users\baeko\.gradle\caches\transforms-1\files-1.1\support-v4-26.1.0.aar\0ac5f3b2910fe8edc5831258e83e3e9b\AndroidManifest.xml:26:9-28:38
MERGED from [com.android.support:support-v4:26.1.0] C:\Users\baeko\.gradle\caches\transforms-1\files-1.1\support-v4-26.1.0.aar\0ac5f3b2910fe8edc5831258e83e3e9b\AndroidManifest.xml:26:9-28:38
MERGED from [com.android.support:support-media-compat:26.1.0] C:\Users\baeko\.gradle\caches\transforms-1\files-1.1\support-media-compat-26.1.0.aar\c527a203f47beaecc4d64206a52a2a26\AndroidManifest.xml:26:9-28:38
MERGED from [com.android.support:support-media-compat:26.1.0] C:\Users\baeko\.gradle\caches\transforms-1\files-1.1\support-media-compat-26.1.0.aar\c527a203f47beaecc4d64206a52a2a26\AndroidManifest.xml:26:9-28:38
MERGED from [com.android.support:support-fragment:26.1.0] C:\Users\baeko\.gradle\caches\transforms-1\files-1.1\support-fragment-26.1.0.aar\097ad7a1ac4687b8ebbd84bce3529346\AndroidManifest.xml:26:9-28:38
MERGED from [com.android.support:support-fragment:26.1.0] C:\Users\baeko\.gradle\caches\transforms-1\files-1.1\support-fragment-26.1.0.aar\097ad7a1ac4687b8ebbd84bce3529346\AndroidManifest.xml:26:9-28:38
MERGED from [com.android.support:support-core-utils:26.1.0] C:\Users\baeko\.gradle\caches\transforms-1\files-1.1\support-core-utils-26.1.0.aar\ddc9691bfd09df0aec5faa6a6722f5f6\AndroidManifest.xml:26:9-28:38
MERGED from [com.android.support:support-core-utils:26.1.0] C:\Users\baeko\.gradle\caches\transforms-1\files-1.1\support-core-utils-26.1.0.aar\ddc9691bfd09df0aec5faa6a6722f5f6\AndroidManifest.xml:26:9-28:38
MERGED from [com.android.support:support-core-ui:26.1.0] C:\Users\baeko\.gradle\caches\transforms-1\files-1.1\support-core-ui-26.1.0.aar\e35e665c6a0ae866f2ab7dcc18bb6ea1\AndroidManifest.xml:26:9-28:38
MERGED from [com.android.support:support-core-ui:26.1.0] C:\Users\baeko\.gradle\caches\transforms-1\files-1.1\support-core-ui-26.1.0.aar\e35e665c6a0ae866f2ab7dcc18bb6ea1\AndroidManifest.xml:26:9-28:38
MERGED from [com.android.support:support-compat:26.1.0] C:\Users\baeko\.gradle\caches\transforms-1\files-1.1\support-compat-26.1.0.aar\192199dfda65f3fdc7e6599341fbc291\AndroidManifest.xml:26:9-28:38
MERGED from [com.android.support:support-compat:26.1.0] C:\Users\baeko\.gradle\caches\transforms-1\files-1.1\support-compat-26.1.0.aar\192199dfda65f3fdc7e6599341fbc291\AndroidManifest.xml:26:9-28:38
	android:value
		ADDED from [com.android.support:design:26.1.0] C:\Users\baeko\.gradle\caches\transforms-1\files-1.1\design-26.1.0.aar\7bbd59657b16f37fce66bc4f2662c9a9\AndroidManifest.xml:28:13-35
	android:name
		ADDED from [com.android.support:design:26.1.0] C:\Users\baeko\.gradle\caches\transforms-1\files-1.1\design-26.1.0.aar\7bbd59657b16f37fce66bc4f2662c9a9\AndroidManifest.xml:27:13-51
meta-data#android.arch.lifecycle.VERSION
ADDED from [android.arch.lifecycle:runtime:1.0.0] C:\Users\baeko\.gradle\caches\transforms-1\files-1.1\runtime-1.0.0.aar\0c7168d11fa44793fdacae38965d550a\AndroidManifest.xml:25:9-27:47
	android:value
		ADDED from [android.arch.lifecycle:runtime:1.0.0] C:\Users\baeko\.gradle\caches\transforms-1\files-1.1\runtime-1.0.0.aar\0c7168d11fa44793fdacae38965d550a\AndroidManifest.xml:27:13-44
	android:name
		ADDED from [android.arch.lifecycle:runtime:1.0.0] C:\Users\baeko\.gradle\caches\transforms-1\files-1.1\runtime-1.0.0.aar\0c7168d11fa44793fdacae38965d550a\AndroidManifest.xml:26:13-58
